{
  "extends": ["gitlab>html-validate/renovate-config"],
  "packageRules": [
    {
      "matchPackagePatterns": [
        "^@semantic-release/",
        "conventional-changelog-conventionalcommits",
        "lerna",
        "semantic-release",
        "semantic-release-lerna"
      ],
      "matchDepTypes": ["dependencies"],
      "rangeStrategy": "pin"
    }
  ]
}
